Tolerance;Round;Error count per validation; error count per step; ref count; node count; true positives:; true negatives; false positives; false negatives
0.00175;0;108;24;48;60;24;72;0;0
0.00175;1;109;24;48;61;24;72;0;0
0.00175;2;105;24;48;57;24;72;0;0
0.00175;3;107;24;48;59;24;72;0;0
0.00175;4;108;24;48;60;24;72;0;0
0.00175;5;101;24;48;53;24;72;0;0
0.00175;6;106;24;48;58;24;72;0;0
0.00175;7;106;24;48;58;24;72;0;0
0.00175;8;103;24;48;55;24;72;0;0
0.00175;9;104;24;48;56;24;72;0;0
Tolerance;Round;Error count per validation; error count per step; ref count; node count; true positives:; true negatives; false positives; false negatives
0.00175;0;13;8;8;5;8;72;0;16
0.00175;1;9;6;6;3;6;72;0;18
0.00175;2;18;11;11;7;11;72;0;13
0.00175;3;16;10;10;6;10;72;0;14
0.00175;4;7;7;7;0;7;72;0;17
0.00175;5;12;7;7;5;7;72;0;17
0.00175;6;9;7;7;2;7;72;0;17
0.00175;7;12;8;8;4;8;72;0;16
0.00175;8;11;9;9;2;9;72;0;15
0.00175;9;15;11;11;4;11;72;0;13
