Tolerance;Round;Error count per validation; error count per step; true positives:; true negatives; false positives; false negatives
0;0;576;96;0;0;96;0
0.0001;0;96;96;0;0;96;0
0.00025;0;73;73;0;23;73;0
0.0005;0;31;31;0;65;31;0
0.00075;0;26;26;0;70;26;0
0.001;0;23;23;0;73;23;0
0.00125;0;15;15;0;81;15;0
0.0015;0;2;2;0;94;2;0
0.00175;0;0;0;0;96;0;0
