node_2
Time step;P;Q;v;Theta;
0;0.648;0.432;0.9454184974490466;-3.66789760264733
1;0.6228;0.4152;0.9477521087621592;-3.5163864319236247
2;0.5742;0.3828;0.952197964444324;-3.226536628018994
3;0.5013;0.3342;0.9587365248384001;-2.797331643377888
4;0.4545;0.303;0.9628550399154454;-2.5251552606456733
5;0.4365;0.291;0.9644231462781869;-2.421146443807939
6;0.4284;0.2856;0.9651259537787257;-2.3744623505596807
7;0.4203;0.2802;0.9658270120416859;-2.3278519907403004
8;0.4122;0.2748;0.9665263307109715;-2.281314893279033
9;0.4077;0.2718;0.9669140929259101;-2.2554924348874925
10;0.4095;0.273;0.9667590520111624;-2.2658187272068386
11;0.4068;0.2712;0.9669915814366399;-2.2503306323423975
12;0.4059;0.2706;0.9670690486668946;-2.245169724695665
13;0.4122;0.2748;0.9665263307109715;-2.281314893279033
14;0.396;0.264;0.9679197873817222;-2.188458623398435
15;0.4446;0.2964;0.9637185798021835;-2.4679047460787342
16;0.459;0.306;0.9624616433965184;-2.5512153447552226
17;0.441;0.294;0.9640319382428977;-2.447114086163381
18;0.423;0.282;0.9655935197165408;-2.3433806139143853
19;0.4275;0.285;0.9652039353461863;-2.3692797891885546
20;0.4284;0.2856;0.9651259537787257;-2.3744623505596807
21;0.4194;0.2796;0.9659047998464251;-2.322677592811807
22;0.4086;0.2724;0.966836583121743;-2.260655132964299
23;0.4059;0.2706;0.9670690486668946;-2.245169724695665
24;0.4014;0.2676;0.9674560660637491;-2.219378587816593
25;0.3951;0.2634;0.9679970002523146;-2.18330840537164
26;0.4005;0.267;0.967533405882586;-2.2142230362968065
27;0.4077;0.2718;0.9669140929259101;-2.2554924348874925
28;0.4122;0.2748;0.9665263307109715;-2.281314893279033
29;0.4545;0.303;0.9628550399154454;-2.5251552606456733
30;0.5328;0.3552;0.9559299755125835;-2.981990944545675
31;0.5715;0.381;0.9524428849005976;-3.2105226710285906
32;0.6102;0.4068;0.9489115875974422;-3.440946149213785
33;0.6399;0.4266;0.9461707336731784;-3.6191051036249458
34;0.6732;0.4488;0.9430650310094145;-3.820265012465552
35;0.7146;0.4764;0.9391544796825071;-4.072492266516732
36;0.7551;0.5034;0.9352743130442217;-4.321607455925268
37;0.7695;0.513;0.933881337736358;-4.410763451736814
38;0.801;0.534;0.9308091847357496;-4.606884498129147
39;0.8397;0.5598;0.9269866891281796;-4.849940324103741
40;0.8568;0.5712;0.9252803499297919;-4.958097708636363
41;0.9;0.6;0.9209209135337011;-5.233480738834243
42;0.8568;0.5712;0.9252803499297918;-4.958097708636363
43;0.846;0.564;0.9263592895533872;-4.8897327665324894
44;0.8514;0.5676;0.9258203580031904;-4.923891571521422
45;0.8613;0.5742;0.9248295172024623;-4.986639156999583
46;0.8388;0.5592;0.9270761990460984;-4.844260898986711
47;0.819;0.546;0.9290379740276625;-4.719640240371618
48;0.846;0.564;0.9263592895533873;-4.88973276653249
49;0.819;0.546;0.9290379740276626;-4.719640240371617
50;0.81;0.54;0.9299250224234024;-4.663199163605573
51;0.801;0.534;0.9308091847357496;-4.606884498129147
52;0.7713;0.5142;0.9337067153621358;-4.4219297798782895
53;0.7605;0.507;0.9347527789352771;-4.355004693339475
54;0.7272;0.4848;0.9379531899819485;-4.149739398391508
55;0.7146;0.4764;0.9391544796825071;-4.072492266516732
56;0.6957;0.4638;0.9409466247117904;-3.957046409645311
57;0.63;0.42;0.9470873663844523;-3.559589053307895
58;0.5481;0.3654;0.9545565619684754;-3.072118490352556
59;0.522;0.348;0.9568953957523716;-2.9185440680016868
60;0.4284;0.2856;0.9651259537787257;-2.3744623505596807
61;0.4149;0.2766;0.966293417184589;-2.2968191477315996
62;0.3636;0.2424;0.9706862397878272;-2.0036049928456614
63;0.3069;0.2046;0.9754633948166581;-1.6827930315303423
64;0.2448;0.1632;0.9806048725020164;-1.3351964000216332
65;0.225;0.15;0.9822248387508759;-1.2251685574947806
66;0.2142;0.1428;0.9831045898251153;-1.165312712940515
67;0.2115;0.141;0.9833241040188653;-1.1503661831291494
68;0.1926;0.1284;0.9848559907005375;-1.0459341665010207
69;0.1818;0.1212;0.9857276760580331;-0.9864097197546049
70;0.171;0.114;0.9865967080556981;-0.9269940105760799
71;0.1602;0.1068;0.9874631039608697;-0.8676861910326081
72;0.1494;0.0996;0.9883268808424253;-0.8084854227067542
73;0.1485;0.099;0.9883987445597211;-0.8035568314647819
74;0.1476;0.0984;0.9884705902163448;-0.7986289773945615
75;0.1485;0.099;0.9883987445597211;-0.8035568314647819
76;0.1494;0.0996;0.9883268808424253;-0.8084854227067542
77;0.1503;0.1002;0.9882549990547534;-0.8134147515973433
78;0.1494;0.0996;0.9883268808424253;-0.8084854227067542
79;0.1494;0.0996;0.9883268808424253;-0.8084854227067542
80;0.1503;0.1002;0.9882549990547534;-0.8134147515973433
81;0.1494;0.0996;0.9883268808424253;-0.8084854227067542
82;0.1521;0.1014;0.9881111812294189;-0.8232756242340685
83;0.1575;0.105;0.9876792930522853;-0.8528759954432789
84;0.171;0.114;0.9865967080556981;-0.9269940105760799
85;0.1818;0.1212;0.9857276760580331;-0.9864097197546049
86;0.1872;0.1248;0.9852921661363122;-1.0161582975601067
87;0.198;0.132;0.9844191475607567;-1.0757374340812007
88;0.2052;0.1368;0.9838356475812755;-1.1155179312536092
89;0.2142;0.1428;0.9831045898251153;-1.165312712940515
90;0.2997;0.1998;0.9760642984230259;-1.64229329231336
91;0.3159;0.2106;0.9747104715270783;-1.7334923060809584
92;0.3528;0.2352;0.9716024077396817;-1.9422377139501024
93;0.4653;0.3102;0.9619099615376634;-2.5877386575941217
94;0.5517;0.3678;0.9542324216694067;-3.093366968848214
95;0.6084;0.4056;0.9490768326716736;-3.4301859315070193
